Get ARTMO Data
…
3.2 Correlation

Even though each of the Statistics in this Example has not performed as we would have expected (low R2 and fairly high RMSE values) we can observe the difference between alorithms as well as the impact of the Noise on the Results. First of all we calculate the GGplots for each of the results. GGplots are mathematical rapresentations on how the plot will look like. The Graph is generated as soon as the object in the list is printed. Therefore we add a new column ResultGG to the Tibble containing the generated GGplots. These can be called later depending on the parameters desired.

model<-"Model1"
parameters<-c("algorithm","noise")
statistics<-"R2"

stat.model.gg<-stat.condense(stat,model,parameters,statistics,addGG = T)
print(stat.model.gg)

## # A tibble: 45 x 7
##    Model  Store.ID    R2 algorithm           noise Results        ResultGG
##    <chr>     <int> <dbl> <chr>               <dbl> <list>         <list>  
##  1 Model1        1 0.226 RMSE                 0    <tibble [126 ~ <S3: gg>
##  2 Model1        2 0.215 RMSE                 1.25 <tibble [126 ~ <S3: gg>
##  3 Model1        3 0.268 RMSE                 2.5  <tibble [126 ~ <S3: gg>
##  4 Model1        4 0.275 RMSE                 3.75 <tibble [126 ~ <S3: gg>
##  5 Model1        5 0.320 RMSE                 5    <tibble [126 ~ <S3: gg>
##  6 Model1        6 0.193 Bhattacharyya dive~  0    <tibble [126 ~ <S3: gg>
##  7 Model1        7 0.184 Bhattacharyya dive~  1.25 <tibble [126 ~ <S3: gg>
##  8 Model1        8 0.157 Bhattacharyya dive~  2.5  <tibble [126 ~ <S3: gg>
##  9 Model1        9 0.174 Bhattacharyya dive~  3.75 <tibble [126 ~ <S3: gg>
## 10 Model1       10 0.179 Bhattacharyya dive~  5    <tibble [126 ~ <S3: gg>
## # ... with 35 more rows
…
