Spatial Link • ArtmoR
…
stat.spat.ras<-stat.spat.ras %>% dplyr::mutate(AcqDate=as.Date(dates))

Spatial Data

But we also need to know about the we need to know about the Simple features/ Shapefiles. These help to evaluate the actual performance of the Model and Validate it. A possible SF File could be like the one here below. Since the Simple Features work as a tibble with geographical annotation it is possible to add many different properties such as the date of acquisition, the station, its coordinates or the actual measurement

print(gpsdata,n=5)

## Simple feature collection with 20 features and 4 fields
## geometry type:  POINT
## dimension:      XY
## bbox:           xmin: 688657 ymin: 5141508 xmax: 688681 ymax: 5141541
## epsg (SRID):    32632
## proj4string:    +proj=utm +zone=32 +datum=WGS84 +units=m +no_defs
## # A tibble: 20 x 5
##   Station   AcqDate    OP1   meanLAI           geometry
##   <chr>     <date>     <chr>   <dbl>        <POINT [m]>
## 1 Domef1500 2017-05-10 ID1      1.52   (688657 5141521)
## 2 Domef1500 2017-05-10 ID2      1.05 (688658.9 5141508)
## 3 Domef1500 2017-05-17 ID1      2.13 (688671.6 5141541)
## 4 Domef1500 2017-05-17 ID2      2.12 (688680.4 5141540)
## 5 Domef1500 2017-05-17 ID3      2.51   (688681 5141531)
## # ... with 15 more rows
…
