Explore the Data • ArtmoR
…
        g1<-ggplot(Results,aes(Measured,Estimated))+
          geom_point()+
          geom_smooth(method="lm")+
          ggtitle("Measured vs. Estimated Samples")+
          xlim(0,10)+ylim(0,10)+
          geom_abline(intercept=0,slope=1,col="firebrick4",linetype=2)
        
        return(g1)
        
      }))

statGG

## # A tibble: 125 x 36
##    Model Database Project PY_ID Date  name_class derivar size_data
##    <chr> <chr>    <chr>   <chr> <chr> <chr>        <int> <S3: int>
##  1 Mode~ artmo_1  Mattia1 1     2018~ Full_image       0 1000     
##  2 Mode~ artmo_1  Mattia1 1     2018~ Full_image       0 1000     
##  3 Mode~ artmo_1  Mattia1 1     2018~ Full_image       0 1000     
##  4 Mode~ artmo_1  Mattia1 1     2018~ Full_image       0 1000     
##  5 Mode~ artmo_1  Mattia1 1     2018~ Full_image       0 1000     
##  6 Mode~ artmo_1  Mattia1 1     2018~ Full_image       0 1000     
##  7 Mode~ artmo_1  Mattia1 1     2018~ Full_image       0 1000     
##  8 Mode~ artmo_1  Mattia1 1     2018~ Full_image       0 1000     
##  9 Mode~ artmo_1  Mattia1 1     2018~ Full_image       0 1000     
## 10 Mode~ artmo_1  Mattia1 1     2018~ Full_image       0 1000     
## # ... with 115 more rows, and 28 more variables: estadistico <int>,
## #   Spectra <list>, LUT <list>, Name1 <chr>, Name2 <chr>, clave <chr>,
## #   param_user <list>, algorithm <chr>, normalizar <int>, sim <S3:
## #   integer64>, alfa <dbl>, beta <dbl>, noise <dbl>, train <dbl>,
## #   ME <dbl>, RMSE <dbl>, RELRMSE <dbl>, MAE <dbl>, R <dbl>, R2 <dbl>,
## #   NRMSE <dbl>, TS <dbl>, NSE <dbl>, tictoc <dbl>, Results <list>,
## #   Store.ID <int>, Table_Type <chr>, ResultGG <list>
…
