Before Starting • ArtmoR
…
  Changelog

      Before Starting

      example0.Rmd

Validation Table

The Validation Table is crucial when validating the simulated Results to the measured samples. ARTMO requires this Table for the LUT. It requires to have the first Line(s) containing the measured value you want to model (e.g. LAI, Angle, Chlorophyll etc). The following rows are then reserved for the Spectral signatures. The exact location of the spectral information as well as the measured variable is specified in ARTMO.

Assuming that you have a tidy dataframe as the following:

artmo

## # A tibble: 126 x 16
##    Station OP1   Date         LAI   MTA Sunzenith S.Band_1 S.Band_2
##    <chr>   <chr> <date>     <dbl> <dbl>     <dbl>    <dbl>    <dbl>
##  1 Domef1~ ID1   2017-05-17  2.13  79.1      28.6   0.0204   0.0494
##  2 Domef1~ ID2   2017-05-17  2.12  83.5      28.6   0.0188   0.0492
##  3 Domef1~ ID3   2017-05-17  2.51  79.9      28.6   0.0188   0.0492
##  4 Domef1~ ID4   2017-05-17  1.71  86.8      28.6   0.0219   0.0518
##  5 Domef1~ ID2   2017-05-24  3.14  67.1      26.9   0.0189   0.047 
##  6 Domef1~ ID3   2017-05-24  2.22  76.4      26.9   0.0189   0.047 
##  7 Domef1~ ID4   2017-05-24  3.79  61.3      26.9   0.0294   0.0679
##  8 Domef1~ ID2   2017-05-31  3.69  63.7      27.1   0.0119   0.0592
##  9 Domef1~ ID3   2017-05-31  3.04  69.3      27.1   0.0112   0.0604
## 10 Domef1~ ID4   2017-05-31  4.96  59.8      27.1   0.0129   0.0545
## # ... with 116 more rows, and 8 more variables: S.Band_3 <dbl>,
## #   S.Band_4 <dbl>, S.Band_5 <dbl>, S.Band_6 <dbl>, S.Band_7 <dbl>,
## #   S.Band_8 <dbl>, S.Band_9 <dbl>, S.Band_10 <dbl>
…
