Get ARTMO Data • ArtmoR
…
The data now is nested depending on the Table Type (which approach has been used). The MyTable columns contain all data retrieved in the MySQL database stored in lists of tibbles. The function dplyr::unnest() allows to reduce their dimensionality and explore in detail the single tables for each of the approaches. If we want to unravel the Table concerning the results of the Database we can use

library("magrittr")
library("dplyr")
library("tidyr")
table<-dbtabs %>% filter(Table_Name=="train") %>% select(MyTables) %>% unnest
print(table)

## # A tibble: 125 x 16
##    ID_T8 ID_T7 ID_T3 ID_TRAIN train      ME  RMSE RELRMSE   MAE     R    R2
##    <int> <int> <int>    <int> <dbl>   <dbl> <dbl>   <dbl> <dbl> <dbl> <dbl>
##  1    10    10     1        1     1  0.101   1.77    70.6  1.22 0.423 0.179
##  2    20    20     1        1     1 -0.434   2.20    87.6  1.61 0.439 0.193
##  3    30    30     1        1     1  1.27    1.98    78.9  1.48 0.561 0.315
##  4    40    40     1        1     1  0.0467  1.86    74.3  1.30 0.425 0.180
##  5    50    50     2        1     1  0.222   1.66    66.2  1.19 0.562 0.316
##  6    64    64     2        1     1 -0.0518  2.21    88.0  1.63 0.321 0.103
##  7    84    84     2        1     1  0.349   1.63    65.0  1.17 0.539 0.291
##  8   115   116     7        1     1  1.1     3.19   127.   2.54 0.158 0.025
##  9     9     9     1        1     1  0.121   1.79    71.3  1.23 0.418 0.174
## 10    19    19     1        1     1 -0.369   2.13    84.9  1.54 0.429 0.184
## # ... with 115 more rows, and 5 more variables: NRMSE <dbl>, TS <dbl>,
## #   NSE <dbl>, tictoc <dbl>, Results <list>
…
Exploration

Actually, this section is up to the next Part of this Website. Nonetheless here is the most common way to analyze one of the Table_Type aggregation. If the dplyr::unnest is used on single columns the MySQL result can be analyzed.

NOTE: This won’t work for the complete tibble since they have different column names. It is recommended to either standardize or process them one by one.

statistics<- dbjoin[1,] %>% unnest
print(statistics)

## # A tibble: 129 x 37
##    Database Table_Type Model Database1 Project PY_ID Date  name_class
##    <chr>    <chr>      <chr> <chr>     <chr>   <chr> <chr> <chr>     
##  1 artmo_1  test_cf    Mode~ artmo_1   Mattia1 1     2018~ Full_image
##  2 artmo_1  test_cf    Mode~ artmo_1   Mattia1 1     2018~ Full_image
##  3 artmo_1  test_cf    Mode~ artmo_1   Mattia1 1     2018~ Full_image
##  4 artmo_1  test_cf    Mode~ artmo_1   Mattia1 1     2018~ Full_image
##  5 artmo_1  test_cf    Mode~ artmo_1   Mattia1 1     2018~ Full_image
##  6 artmo_1  test_cf    Mode~ artmo_1   Mattia1 1     2018~ Full_image
##  7 artmo_1  test_cf    Mode~ artmo_1   Mattia1 1     2018~ Full_image
##  8 artmo_1  test_cf    Mode~ artmo_1   Mattia1 1     2018~ Full_image
##  9 artmo_1  test_cf    Mode~ artmo_1   Mattia1 1     2018~ Full_image
## 10 artmo_1  test_cf    Mode~ artmo_1   Mattia1 1     2018~ Full_image
## # ... with 119 more rows, and 29 more variables: derivar <int>,
## #   size_data <S3: integer64>, estadistico <int>, Spectra <list>,
## #   LUT <list>, Name1 <chr>, Name2 <chr>, clave <chr>, param_user <list>,
## #   algorithm <chr>, normalizar <int>, sim <S3: integer64>, alfa <dbl>,
## #   beta <dbl>, noise <dbl>, train <dbl>, ME <dbl>, RMSE <dbl>,
## #   RELRMSE <dbl>, MAE <dbl>, R <dbl>, R2 <dbl>, NRMSE <dbl>, TS <dbl>,
## #   NSE <dbl>, tictoc <dbl>, Results <list>, Store.ID <int>,
## #   Table_Type1 <chr>
…
